IMP2/Modular_Reduction/Modular_Reduction.sim/sim_1/behav/xsim/simulate.log
Time resolution is 1 ps
time=0 reset=1 in=000000000000 out=xxxxxx
time=5000 reset=1 in=000000000000 out=000000
time=20000 reset=0 in=123456789abc out=000000
time=30000 reset=0 in=3fffffffffff out=000000
time=40000 reset=0 in=000000000001 out=000000
time=50000 reset=0 in=2aaaaaaa5555 out=000000
time=55000 reset=0 in=2aaaaaaa5555 out=0d48f3
time=60000 reset=0 in=155555555555 out=0d48f3
time=65000 reset=0 in=155555555555 out=00bff8
time=70000 reset=0 in=000012153524 out=00bff8
time=75000 reset=0 in=000012153524 out=000001
time=80000 reset=0 in=3fffc0895e81 out=000001
time=85000 reset=0 in=3fffc0895e81 out=2acaa6
time=90000 reset=0 in=3fff8484d609 out=2acaa6
time=95000 reset=0 in=3fff8484d609 out=557ffe
time=100000 reset=0 in=3fffb1f05663 out=557ffe
time=105000 reset=0 in=3fffb1f05663 out=19b500
time=110000 reset=0 in=000006b97b0d out=19b500
time=115000 reset=0 in=000006b97b0d out=7a1efa
time=120000 reset=0 in=000046df998d out=7a1efa
time=125000 reset=0 in=000046df998d out=6696fa
time=130000 reset=0 in=3fffb2c28465 out=6696fa
time=135000 reset=0 in=3fffb2c28465 out=5d76f9
time=140000 reset=0 in=3fff89375212 out=5d76f9
time=145000 reset=0 in=3fff89375212 out=3b1b00
time=150000 reset=0 in=000000f3e301 out=3b1b00
time=155000 reset=0 in=000000f3e301 out=713900
time=160000 reset=0 in=000006d7cd0d out=713900
time=165000 reset=0 in=000006d7cd0d out=2fe4f9
time=175000 reset=0 in=000006d7cd0d out=1a52f9
time=185000 reset=0 in=000006d7cd0d out=740300
$finish called at time : 190 ns : File "C:/Users/fossu/Desktop/ML_DSA_Syn_new/IMP2/Modular_Reduction/Modular_Reduction.srcs/sim_1/new/Modular_Reduction_tb.v" Line 63
