IMP2/Sampler_shift_reg_version/Sampler.sim/sim_1/behav/xsim/dump.vcd
$date
   Thu May  1 02:39:29 2025
$end

$version
  2023.2
$end

$timescale
  1ps
$end

$scope module Sampler_tb $end
$var reg 1 ! clk $end
$var reg 1 " reset $end
$var reg 2 # mode [1:0] $end
$var reg 1 $ sampler_in_ready $end
$var reg 1344 % sampler_in [1343:0] $end
$var wire 1 & sampler_squeeze $end
$var wire 1 ' next_element $end
$var reg 1 ( s_sel $end
$var reg 4 ) mem_sel [3:0] $end
$var wire 23 * z0 [22:0] $end
$var wire 23 + z1 [22:0] $end
$var wire 8 , addr_z0 [7:0] $end
$var wire 8 - addr_z1 [7:0] $end
$var wire 1 . en_z0 $end
$var wire 1 / we_z0 $end
$var wire 1 0 en_z1 $end
$var wire 1 1 we_z1 $end
$var wire 1 2 s0_en_z $end
$var wire 1 3 s0_we_z $end
$var wire 1 4 s1_en_z $end
$var wire 1 5 s1_we_z $end
$var wire 23 6 A0 [22:0] $end
$var wire 23 7 A1 [22:0] $end
$var wire 8 8 addr_A0 [7:0] $end
$var wire 8 9 addr_A1 [7:0] $end
$var wire 1 : en_A0 $end
$var wire 1 ; we_A0 $end
$var wire 1 < en_A1 $end
$var wire 1 = we_A1 $end
$var wire 23 > y0 [22:0] $end
$var wire 23 ? y1 [22:0] $end
$var wire 8 @ addr_y0 [7:0] $end
$var wire 8 A addr_y1 [7:0] $end
$var wire 1 B en_y $end
$var wire 1 C we_y $end
$var wire 23 D ci [22:0] $end
$var wire 8 E addr_ci [7:0] $end
$var wire 8 F addr_cj [7:0] $end
$var wire 1 G en_ci $end
$var wire 1 H en_cj $end
$var wire 1 I we_ci $end
$var wire 1 J we_cj $end
$var wire 23 K s0_q_a [22:0] $end
$var wire 23 L s0_q_b [22:0] $end
$var wire 23 M s1_q_a [22:0] $end
$var wire 23 N s1_q_b [22:0] $end
$var wire 23 O A_q_a [22:0] $end
$var wire 23 P A_q_b [22:0] $end
$var wire 23 Q w_q_a [22:0] $end
$var wire 23 R w_q_b [22:0] $end
$var wire 23 S c_q_a [22:0] $end
$var wire 23 T c_q_b [22:0] $end
$var wire 1 U s0_en_z0 $end
$var wire 1 V s0_we_z0 $end
$var wire 1 W s0_en_z1 $end
$var wire 1 X s0_we_z1 $end
$var wire 1 Y s1_en_z0 $end
$var wire 1 Z s1_we_z0 $end
$var wire 1 [ s1_en_z1 $end
$var wire 1 \ s1_we_z1 $end
$var wire 1 ] y_q_a $end
$var wire 1 ^ y_q_b $end
$scope module uut $end
$var wire 1 _ clk $end
$var wire 1 ` reset $end
$var wire 2 a mode [1:0] $end
$var wire 1 b sampler_in_ready $end
$var wire 1344 c sampler_in [1343:0] $end
$var wire 1 & sampler_squeeze $end
$var wire 1 ' next_element $end
$var wire 23 * z0 [22:0] $end
$var wire 23 + z1 [22:0] $end
$var wire 8 , addr_z0 [7:0] $end
$var wire 8 - addr_z1 [7:0] $end
$var wire 1 . en_z0 $end
$var wire 1 / we_z0 $end
$var wire 1 0 en_z1 $end
$var wire 1 1 we_z1 $end
$var wire 23 6 A0 [22:0] $end
$var wire 23 7 A1 [22:0] $end
$var wire 8 8 addr_A0 [7:0] $end
$var wire 8 9 addr_A1 [7:0] $end
$var wire 1 : en_A0 $end
$var wire 1 ; we_A0 $end
$var wire 1 < en_A1 $end
$var wire 1 = we_A1 $end
$var wire 23 > y0 [22:0] $end
$var wire 23 ? y1 [22:0] $end
$var wire 8 @ addr_y0 [7:0] $end
$var wire 8 A addr_y1 [7:0] $end
$var wire 1 B en_y $end
$var wire 1 C we_y $end
$var wire 23 D ci [22:0] $end
$var wire 8 E addr_ci [7:0] $end
$var wire 8 F addr_cj [7:0] $end
$var wire 1 G en_ci $end
$var wire 1 H en_cj $end
$var wire 1 I we_ci $end
$var wire 1 J we_cj $end
$var reg 4 d round_cnt [3:0] $end
$var reg 1 e curr_state $end
$var reg 1 f next_state $end
$var reg 1 g sampler_in_ready_buffer $end
$var reg 1344 h sampler_buffer [1343:0] $end
$var wire 1 i sampler_in_ready_S $end
$var wire 1 j sampler_in_ready_A $end
$var wire 1 k sampler_in_ready_MASK $end
$var wire 1 l sampler_in_ready_SIB $end
$var reg 9 m j [8:0] $end
$var wire 9 n j_next [8:0] $end
$var wire 9 o j_next_s [8:0] $end
$var wire 9 p j_next_A [8:0] $end
$var wire 9 q j_next_MASK [8:0] $end
$var wire 9 r j_next_SIB [8:0] $end
$var reg 8 s shake_cnt [7:0] $end
$var wire 1 t shake_triger $end
$var wire 1 u last_sample $end
$var wire 6 v MASK_remain [5:0] $end
$scope module ExpandS_ $end
$var wire 1 _ clk $end
$var wire 1 ` reset $end
$var wire 1 i sampler_in_ready $end
$var wire 8 w sampler_in [7:0] $end
$var wire 9 x j [8:0] $end
$var wire 9 o j_next [8:0] $end
$var wire 23 * z0 [22:0] $end
$var wire 23 + z1 [22:0] $end
$var wire 8 , addr_z0 [7:0] $end
$var wire 8 - addr_z1 [7:0] $end
$var wire 1 . en_z0 $end
$var wire 1 / we_z0 $end
$var wire 1 0 en_z1 $end
$var wire 1 1 we_z1 $end
$var wire 2 y j_plus_num [1:0] $end
$var wire 3 z CFHB_0_out [2:0] $end
$var wire 3 { CFHB_1_out [2:0] $end
$var wire 1 | a $end
$var wire 1 } b $end
$var wire 3 ~ z0_tmp [2:0] $end
$var wire 3 !! z1_tmp [2:0] $end
$scope module CFHB_0 $end
$var wire 4 "! in [3:0] $end
$var reg 3 #! out [2:0] $end
$upscope $end
$scope module CFHB_1 $end
$var wire 4 $! in [7:4] $end
$var reg 3 %! out [2:0] $end
$upscope $end
$upscope $end
$scope module ExpandA_ $end
$var wire 1 _ clk $end
$var wire 1 ` reset $end
$var wire 1 j sampler_in_ready $end
$var wire 48 &! sampler_in [47:0] $end
$var wire 9 '! j [8:0] $end
$var wire 9 p j_next [8:0] $end
$var wire 23 6 A0 [22:0] $end
$var wire 23 7 A1 [22:0] $end
$var wire 8 8 addr_A0 [7:0] $end
$var wire 8 9 addr_A1 [7:0] $end
$var wire 1 : en_A0 $end
$var wire 1 ; we_A0 $end
$var wire 1 < en_A1 $end
$var wire 1 = we_A1 $end
$var wire 2 (! j_plus_num [1:0] $end
$var wire 1 )! rej0 $end
$var wire 1 *! rej1 $end
$upscope $end
$scope module ExpandMASK_ $end
$var wire 1 _ clk $end
$var wire 1 ` reset $end
$var wire 1 k sampler_in_ready $end
$var wire 36 +! sampler_in [35:0] $end
$var wire 9 ,! j [8:0] $end
$var wire 9 q j_next [8:0] $end
$var wire 23 > y0 [22:0] $end
$var wire 23 ? y1 [22:0] $end
$var wire 8 @ addr_y0 [7:0] $end
$var wire 8 A addr_y1 [7:0] $end
$var wire 1 B en_y $end
$var wire 1 C we_y $end
$var wire 18 -! H0 [17:0] $end
$var wire 18 .! H1 [17:0] $end
$var wire 1 /! larger_0 $end
$var wire 1 0! larger_1 $end
$var wire 23 1! y_minuend_0 [22:0] $end
$var wire 23 2! y_minuend_1 [22:0] $end
$var wire 18 3! y_subtrahend_0 [17:0] $end
$var wire 18 4! y_subtrahend_1 [17:0] $end
$upscope $end
$upscope $end
$scope module DM $end
$var wire 1 5! clk $end
$var wire 1 6! reset $end
$var wire 1 7! Rho_en $end
$var wire 1 8! Rho_mode $end
$var wire 256 9! Rho_din [255:0] $end
$var reg 256 :! Rho_dout [255:0] $end
$var wire 1 ;! Rho_prime_en $end
$var wire 1 <! Rho_prime_mode $end
$var wire 512 =! Rho_prime_din [511:0] $end
$var reg 512 >! Rho_prime_dout [511:0] $end
$var wire 1 ?! Kata_en $end
$var wire 1 @! Kata_mode $end
$var wire 256 A! Kata_din [255:0] $end
$var reg 256 B! Kata_dout [255:0] $end
$var wire 23 * s0_data_a [22:0] $end
$var wire 23 + s0_data_b [22:0] $end
$var wire 10 C! s0_addr_a [9:0] $end
$var wire 10 D! s0_addr_b [9:0] $end
$var wire 1 U s0_en_a $end
$var wire 1 W s0_en_b $end
$var wire 1 V s0_we_a $end
$var wire 1 X s0_we_b $end
$var wire 23 K s0_q_a [22:0] $end
$var wire 23 L s0_q_b [22:0] $end
$var wire 23 * s1_data_a [22:0] $end
$var wire 23 + s1_data_b [22:0] $end
$var wire 10 E! s1_addr_a [9:0] $end
$var wire 10 F! s1_addr_b [9:0] $end
$var wire 1 Y s1_en_a $end
$var wire 1 [ s1_en_b $end
$var wire 1 Z s1_we_a $end
$var wire 1 \ s1_we_b $end
$var wire 23 M s1_q_a [22:0] $end
$var wire 23 N s1_q_b [22:0] $end
$var wire 23 6 A_data_a [22:0] $end
$var wire 23 7 A_data_b [22:0] $end
$var wire 12 G! A_addr_a [11:0] $end
$var wire 12 H! A_addr_b [11:0] $end
$var wire 1 : A_en_a $end
$var wire 1 < A_en_b $end
$var wire 1 ; A_we_a $end
$var wire 1 = A_we_b $end
$var wire 23 O A_q_a [22:0] $end
$var wire 23 P A_q_b [22:0] $end
$var wire 23 > y_data_a [22:0] $end
$var wire 23 ? y_data_b [22:0] $end
$var wire 10 I! y_addr_a [9:0] $end
$var wire 10 J! y_addr_b [9:0] $end
$var wire 1 B y_en_a $end
$var wire 1 B y_en_b $end
$var wire 1 C y_we_a $end
$var wire 1 C y_we_b $end
$var wire 23 K! y_q_a [22:0] $end
$var wire 23 L! y_q_b [22:0] $end
$var wire 23 D c_data_a [22:0] $end
$var wire 23 S c_data_b [22:0] $end
$var wire 8 E c_addr_a [7:0] $end
$var wire 8 F c_addr_b [7:0] $end
$var wire 1 G c_en_a $end
$var wire 1 H c_en_b $end
$var wire 1 I c_we_a $end
$var wire 1 J c_we_b $end
$var wire 23 S c_q_a [22:0] $end
$var wire 23 T c_q_b [22:0] $end
$scope module s0 $end
$var wire 1 5! clk_a $end
$var wire 1 5! clk_b $end
$var wire 23 * data_a [22:0] $end
$var wire 23 + data_b [22:0] $end
$var wire 10 C! addr_a [9:0] $end
$var wire 10 D! addr_b [9:0] $end
$var wire 1 U en_a $end
$var wire 1 W en_b $end
$var wire 1 V we_a $end
$var wire 1 X we_b $end
$var reg 23 M! q_a [22:0] $end
$var reg 23 N! q_b [22:0] $end
$scope begin ram_init $end
$var integer 32 O! i [31:0] $end
$upscope $end
$upscope $end
$scope module s1 $end
$var wire 1 5! clk_a $end
$var wire 1 5! clk_b $end
$var wire 23 * data_a [22:0] $end
$var wire 23 + data_b [22:0] $end
$var wire 10 E! addr_a [9:0] $end
$var wire 10 F! addr_b [9:0] $end
$var wire 1 Y en_a $end
$var wire 1 [ en_b $end
$var wire 1 Z we_a $end
$var wire 1 \ we_b $end
$var reg 23 P! q_a [22:0] $end
$var reg 23 Q! q_b [22:0] $end
$scope begin ram_init $end
$var integer 32 R! i [31:0] $end
$upscope $end
$upscope $end
$scope module A $end
$var wire 1 5! clk_a $end
$var wire 1 5! clk_b $end
$var wire 23 6 data_a [22:0] $end
$var wire 23 7 data_b [22:0] $end
$var wire 12 G! addr_a [11:0] $end
$var wire 12 H! addr_b [11:0] $end
$var wire 1 : en_a $end
$var wire 1 < en_b $end
$var wire 1 ; we_a $end
$var wire 1 = we_b $end
$var reg 23 S! q_a [22:0] $end
$var reg 23 T! q_b [22:0] $end
$scope begin ram_init $end
$var integer 32 U! i [31:0] $end
$upscope $end
$upscope $end
$scope module y $end
$var wire 1 5! clk_a $end
$var wire 1 5! clk_b $end
$var wire 23 > data_a [22:0] $end
$var wire 23 ? data_b [22:0] $end
$var wire 10 I! addr_a [9:0] $end
$var wire 10 J! addr_b [9:0] $end
$var wire 1 B en_a $end
$var wire 1 B en_b $end
$var wire 1 C we_a $end
$var wire 1 C we_b $end
$var reg 23 V! q_a [22:0] $end
$var reg 23 W! q_b [22:0] $end
$scope begin ram_init $end
$var integer 32 X! i [31:0] $end
$upscope $end
$upscope $end
$scope module c $end
$var wire 1 5! clk_a $end
$var wire 1 5! clk_b $end
$var wire 23 D data_a [22:0] $end
$var wire 23 S data_b [22:0] $end
$var wire 8 E addr_a [7:0] $end
$var wire 8 F addr_b [7:0] $end
$var wire 1 G en_a $end
$var wire 1 H en_b $end
$var wire 1 I we_a $end
$var wire 1 J we_b $end
$var reg 23 Y! q_a [22:0] $end
$var reg 23 Z! q_b [22:0] $end
$scope begin ram_init $end
$var integer 32 [! i [31:0] $end
$upscope $end
$upscope $end
$upscope $end
$scope task apply_reset $end
$upscope $end
$scope task send_input $end
$var reg 1344 \! data [1343:0] $end
$upscope $end
$scope task y $end
$upscope $end
$upscope $end
$enddefinitions $end

#0
$dumpvars
0!
bx !!
1"
bx "!
bx #
bx #!
0$
bx $!
b0 %
bx %!
x&
bx &!
x'
bx '!
x(
bx (!
bx )
x)!
bx *
x*!
bx +
bx +!
bx ,
bx ,!
bx -
bx -!
x.
bx .!
x/
x/!
x0
x0!
x1
bx1xxxx000000000000x 1!
z2
bx1xxxx000000000000x 2!
z3
bx 3!
z4
bx 4!
z5
05!
bx 6
16!
bx 7
z7!
bx 8
z8!
bx 9
bz 9!
x:
b0 :!
x;
z;!
x<
z<!
x=
bz =!
bx >
b0 >!
bx ?
z?!
bx @
z@!
bx A
bz A!
xB
b0 B!
xC
bx C!
bz D
bx D!
bz E
bx E!
bz F
bx F!
zG
bx G!
zH
bx H!
zI
bx I!
zJ
bx J!
bx K
bx K!
bx L
bx L!
bx M
bx M!
bx N
bx N!
bx O
b10000000000 O!
bx P
bx P!
bz Q
bx Q!
bz R
b10000000000 R!
bx S
bx S!
bx T
bx T!
xU
b1000000000000 U!
xV
bx V!
xW
bx W!
xX
b10000000000 X!
xY
bx Y!
xZ
bx Z!
x[
b100000000 [!
x\
bx \!
x]
x^
0_
1`
bx a
0b
b0 c
bx d
xe
0f
xg
bx h
xi
xj
xk
xl
bx m
bx n
bx o
bx p
bx q
bz r
bx s
xt
xu
bx000 v
bx w
bx x
bx y
bx z
bx {
x|
x}
bx ~
$end

#13000
1!
b10 !!
b0 "!
b10 #!
b0 $!
b10 %!
0&
b0 &!
0'
b0 '!
b10 (!
0)!
b10 *
0*!
b10 +
b0 +!
b0 ,
b0 ,!
b1 -
b0 -!
0.
b0 .!
0/
0/!
00
00!
01
b100000000000000000 1!
b100000000000000000 2!
b0 3!
b0 4!
15!
b0 6
b0 7
b0 8
b1 9
0:
0;
0<
0=
b100000000000000000 >
b100000000000000000 ?
b0 @
b1 A
0B
0C
bx00000000 C!
bx00000001 D!
bx00000000 E!
bx00000001 F!
bx00000000 G!
bx00000001 H!
bx00000000 I!
bx00000001 J!
0U
0V
0W
0X
0Y
0Z
0[
0\
1_
b0 d
0e
0g
b0 h
0i
0j
0k
0l
b0 m
b10 o
b10 p
b10 q
b0 s
0t
b0 v
b0 w
b0 x
b10 y
b10 z
b10 {
0|
0}
b10 ~

#26000
0!
05!
0_

#39000
1!
15!
1_

#52000
0!
05!
0_

#65000
1!
15!
1_

#78000
0!
05!
0_

#91000
1!
15!
1_

#104000
0!
05!
0_

#117000
1!
15!
1_

#130000
0!
05!
0_

#143000
1!
15!
1_

#156000
0!
05!
0_

#169000
1!
15!
1_

#182000
0!
05!
0_

#195000
1!
15!
1_

#208000
0!
05!
0_

#221000
1!
15!
1_

#234000
0!
05!
0_

#247000
1!
15!
1_

#260000
0!
0"
b10 #
b0 )
05!
06!
b0 C!
b1 D!
b0 E!
b1 F!
b0 G!
b1 H!
b0 I!
b1 J!
0_
0`
b10 a
b10 n
0u

#273000
1!
15!
1_

#286000
0!
05!
0_

#299000
1!
15!
1_

#312000
0!
05!
0_

#325000
1!
15!
1_

#338000
0!
05!
0_

#351000
1!
15!
1_

#364000
0!
05!
0_

#377000
1!
15!
1_

#390000
0!
05!
0_

#403000
1!
15!
1_

#416000
0!
05!
0_

#429000
1!
15!
1_

#442000
0!
05!
0_

#455000
1!
15!
1_

#468000
0!
05!
0_

#481000
1!
15!
1_

#494000
0!
05!
0_

#507000
1!
15!
1_

#520000
0!
05!
0_

#533000
1!
15!
1_

#546000
0!
05!
0_

#559000
1!
15!
1_

#572000
0!
05!
0_

#585000
1!
15!
1_

#598000
0!
05!
0_

#611000
1!
15!
1_

#624000
0!
05!
0_

#637000
1!
15!
1_

#650000
0!
05!
0_

#663000
1!
15!
1_

#676000
0!
05!
0_

#689000
1!
15!
1_

#702000
0!
05!
0_

#715000
1!
15!
1_

#728000
0!
05!
0_

#741000
1!
15!
1_

#754000
0!
05!
0_

#767000
1!
15!
1_

#780000
0!
05!
0_

#793000
1!
15!
1_

#806000
0!
05!
0_

#819000
1!
15!
1_

#832000
0!
05!
0_

#845000
1!
15!
1_

#858000
0!
05!
0_

#871000
1!
15!
1_

#884000
0!
05!
0_

#897000
1!
15!
1_

#910000
0!
05!
0_

#923000
1!
15!
1_

#936000
0!
05!
0_

#949000
1!
15!
1_

#962000
0!
05!
0_

#975000
1!
15!
1_

#988000
0!
05!
0_

#1001000
1!
15!
1_

#1014000
0!
05!
0_

#1027000
1!
15!
1_

#1040000
0!
05!
0_

#1053000
1!
15!
1_

#1066000
0!
05!
0_

#1079000
1!
15!
1_

#1092000
0!
05!
0_

#1105000
1!
15!
1_

#1118000
0!
05!
0_

#1131000
1!
15!
1_

#1144000
0!
05!
0_

#1157000
1!
15!
1_

#1170000
0!
05!
0_

#1183000
1!
15!
1_

#1196000
0!
05!
0_

#1209000
1!
15!
1_

#1222000
0!
05!
0_

#1235000
1!
15!
1_

#1248000
0!
05!
0_

#1261000
1!
15!
1_

#1274000
0!
05!
0_

#1287000
1!
15!
1_

#1300000
0!
05!
0_

#1313000
1!
15!
1_

#1326000
0!
05!
0_

#1339000
1!
15!
1_

#1352000
0!
1$
b10001101100111101001010010110001000001110010011110110100111001000010111101001010110100101010001000101010110111111100101011000101100101101101000010100110101000101110100110111101010101000100111110000110100000111101111010101100011100001000000010011010001010011111111111111001011001111001110110010101101011010111011011011001010111100111011000000101111110000011110001111011100010011111111101100001000011000111110001001000111101000111111010101111111010010101011000111000001101011110001001010101111000010100010101101011000000110100100000001010011110010101101011001100111001100111011101101000100010000010100000111000111000010110011110111101001111010011110111110101110011010001001001110011111110011001101001000100000111010001100110010111011111100100011001000010111100011100111110001100111010110000011100100101111011001010010001000111001110100000111110000110101101001010101010111010100011111111011010111001000011001001111000001011100010011000010100011111100111111110111101011101011100000101000101111000001000011100010110101111101010110000001011111000010010110011111000101101010001101101110010101000 %
05!
b10001101100111101001010010110001000001110010011110110100111001000010111101001010110100101010001000101010110111111100101011000101100101101101000010100110101000101110100110111101010101000100111110000110100000111101111010101100011100001000000010011010001010011111111111111001011001111001110110010101101011010111011011011001010111100111011000000101111110000011110001111011100010011111111101100001000011000111110001001000111101000111111010101111111010010101011000111000001101011110001001010101111000010100010101101011000000110100100000001010011110010101101011001100111001100111011101101000100010000010100000111000111000010110011110111101001111010011110111110101110011010001001001110011111110011001101001000100000111010001100110010111011111100100011001000010111100011100111110001100111010110000011100100101111011001010010001000111001110100000111110000110101101001010101010111010100011111111011010111001000011001001111000001011100010011000010100011111100111111110111101011101011100000101000101111000001000011100010110101111101010110000001011111000010010110011111000101101010001101101110010101000 \!
0_
1b
b10001101100111101001010010110001000001110010011110110100111001000010111101001010110100101010001000101010110111111100101011000101100101101101000010100110101000101110100110111101010101000100111110000110100000111101111010101100011100001000000010011010001010011111111111111001011001111001110110010101101011010111011011011001010111100111011000000101111110000011110001111011100010011111111101100001000011000111110001001000111101000111111010101111111010010101011000111000001101011110001001010101111000010100010101101011000000110100100000001010011110010101101011001100111001100111011101101000100010000010100000111000111000010110011110111101001111010011110111110101110011010001001001110011111110011001101001000100000111010001100110010111011111100100011001000010111100011100111110001100111010110000011100100101111011001010010001000111001110100000111110000110101101001010101010111010100011111111011010111001000011001001111000001011100010011000010100011111100111111110111101011101011100000101000101111000001000011100010110101111101010110000001011111000010010110011111000101101010001101101110010101000 c
1f

#1365000
1!
b1000 "!
b111 #!
b1010 $!
b10010110011111000101101010001101101110010101000 &!
b11111111110000000000000 *
b111000101101010001101101110010101000 +!
b101101110010101000 -!
b111000101101010001 .!
1/!
10!
b11111111110000000000001 1!
b11111111110000000000001 2!
b1101110010101000 3!
b11000101101010001 4!
15!
b10001101101110010101000 6
b10010110011111000101101 7
b11111110000001101011001 >
b11111100101010010110000 ?
1B
1C
1_
1e
1g
b10001101100111101001010010110001000001110010011110110100111001000010111101001010110100101010001000101010110111111100101011000101100101101101000010100110101000101110100110111101010101000100111110000110100000111101111010101100011100001000000010011010001010011111111111111001011001111001110110010101101011010111011011011001010111100111011000000101111110000011110001111011100010011111111101100001000011000111110001001000111101000111111010101111111010010101011000111000001101011110001001010101111000010100010101101011000000110100100000001010011110010101101011001100111001100111011101101000100010000010100000111000111000010110011110111101001111010011110111110101110011010001001001110011111110011001101001000100000111010001100110010111011111100100011001000010111100011100111110001100111010110000011100100101111011001010010001000111001110100000111110000110101101001010101010111010100011111111011010111001000011001001111000001011100010011000010100011111100111111110111101011101011100000101000101111000001000011100010110101111101010110000001011111000010010110011111000101101010001101101110010101000 h
1k
b10101000 w
b111 z
b111 ~

#1378000
0!
0$
05!
0_
0b

#1391000
1!
b1 !!
b11 "!
b1011 $!
b1 %!
b10110101111101010110000001011111000010010110011 &!
b10 '!
b1 +
b101010110000001011111000010010110011 +!
b10 ,
b10 ,!
b11 -
b111000010010110011 -!
b101010110000001011 .!
b11000010010110011 3!
b1010110000001011 4!
15!
b1011111000010010110011 6
b10110101111101010110000 7
b10 8
b11 9
b11111100101101101001110 >
b11111110011001111110110 ?
b10 @
b11 A
b10 C!
b11 D!
b10 E!
b11 F!
b10 G!
b11 H!
b10 I!
b11 J!
b0 K!
b0 L!
b0 V!
b0 W!
0]
0^
1_
0g
b10001101100111101001010010110001000001110010011110110100111001000010111101001010110100101010001000101010110111111100101011000101100101101101000010100110101000101110100110111101010101000100111110000110100000111101111010101100011100001000000010011010001010011111111111111001011001111001110110010101101011010111011011011001010111100111011000000101111110000011110001111011100010011111111101100001000011000111110001001000111101000111111010101111111010010101011000111000001101011110001001010101111000010100010101101011000000110100100000001010011110010101101011001100111001100111011101101000100010000010100000111000111000010110011110111101001111010011110111110101110011010001001001110011111110011001101001000100000111010001100110010111011111100100011001000010111100011100111110001100111010110000011100100101111011001010010001000111001110100000111110000110101101001010101010111010100011111111011010111001000011001001111000001011100010011000010100011111100111111110111101011101011100000101000101111000001000011100010110101111101010110000001011111000010010110011 h
b10 m
b100 n
b100 o
b100 p
b100 q
b1 s
b10110011 w
b10 x
b1 {

#1404000
0!
05!
0_

#1417000
1!
b10 !!
b1111 "!
b10 #!
b1010 $!
b10 %!
b11100000101000101111000001000011100010110101111 &!
b100 '!
b10 *
b10 +
b101111000001000011100010110101111 +!
b100 ,
b100 ,!
b101 -
b11100010110101111 -!
b101111000001000 .!
0/!
00!
b100000000000000000 1!
b100000000000000000 2!
b11100010110101111 3!
b101111000001000 4!
15!
b1000011100010110101111 6
b11100000101000101111000 7
b100 8
b101 9
b11101001010001 >
b11010000111111000 ?
b100 @
b101 A
b100 C!
b101 D!
b100 E!
b101 F!
b100 G!
b101 H!
b100 I!
b101 J!
1_
b10001101100111101001010010110001000001110010011110110100111001000010111101001010110100101010001000101010110111111100101011000101100101101101000010100110101000101110100110111101010101000100111110000110100000111101111010101100011100001000000010011010001010011111111111111001011001111001110110010101101011010111011011011001010111100111011000000101111110000011110001111011100010011111111101100001000011000111110001001000111101000111111010101111111010010101011000111000001101011110001001010101111000010100010101101011000000110100100000001010011110010101101011001100111001100111011101101000100010000010100000111000111000010110011110111101001111010011110111110101110011010001001001110011111110011001101001000100000111010001100110010111011111100100011001000010111100011100111110001100111010110000011100100101111011001010010001000111001110100000111110000110101101001010101010111010100011111111011010111001000011001001111000001011100010011000010100011111100111111110111101011101011100000101000101111000001000011100010110101111 h
b100 m
b110 n
b101 o
b110 p
b110 q
b10 s
b10101111 w
b100 x
b1 y
b10 z
b10 {
1|
b10 ~

#1430000
0!
05!
0_

#1443000
1!
b101 "!
b0 $!
b10100011111100111111110111101011101011100000101 &!
b110 '!
b100111111110111101011101011100000101 +!
b110 ,
b110 ,!
b111 -
b11101011100000101 -!
b100111111110111101 .!
10!
b11111111110000000000001 2!
b11101011100000101 3!
b111111110111101 4!
15!
b11101011101011100000101 6
b10100011111100111111110 7
b110 8
b111 9
b10100011111011 >
b11111110110000001000100 ?
b110 @
b111 A
b110 C!
b111 D!
b110 E!
b111 F!
b110 G!
b111 H!
b110 I!
b111 J!
1_
b10001101100111101001010010110001000001110010011110110100111001000010111101001010110100101010001000101010110111111100101011000101100101101101000010100110101000101110100110111101010101000100111110000110100000111101111010101100011100001000000010011010001010011111111111111001011001111001110110010101101011010111011011011001010111100111011000000101111110000011110001111011100010011111111101100001000011000111110001001000111101000111111010101111111010010101011000111000001101011110001001010101111000010100010101101011000000110100100000001010011110010101101011001100111001100111011101101000100010000010100000111000111000010110011110111101001111010011110111110101110011010001001001110011111110011001101001000100000111010001100110010111011111100100011001000010111100011100111110001100111010110000011100100101111011001010010001000111001110100000111110000110101101001010101010111010100011111111011010111001000011001001111000001011100010011000010100011111100111111110111101011101011100000101 h
b110 m
b1000 n
b1000 o
b1000 p
b1000 q
b11 s
b101 w
b110 x
b10 y
0|

#1456000
0!
05!
0_

#1469000
1!
b1 !!
b1111 "!
b1 $!
b1 %!
b11001001111000001011100010011000010100011111 &!
b1000 '!
b1 *
b1 +
b111000001011100010011000010100011111 +!
b1000 ,
b1000 ,!
b1001 -
b11000010100011111 -!
b111000001011100010 .!
b11000010100011111 3!
b11000001011100010 4!
15!
b10011000010100011111 6
b11001001111000001011 7
b1000 8
b1001 9
b111101011100001 >
b11111100101110100011111 ?
b1000 @
b1001 A
b1000 C!
b1001 D!
b1000 E!
b1001 F!
b1000 G!
b1001 H!
b1000 I!
b1001 J!
1_
b10001101100111101001010010110001000001110010011110110100111001000010111101001010110100101010001000101010110111111100101011000101100101101101000010100110101000101110100110111101010101000100111110000110100000111101111010101100011100001000000010011010001010011111111111111001011001111001110110010101101011010111011011011001010111100111011000000101111110000011110001111011100010011111111101100001000011000111110001001000111101000111111010101111111010010101011000111000001101011110001001010101111000010100010101101011000000110100100000001010011110010101101011001100111001100111011101101000100010000010100000111000111000010110011110111101001111010011110111110101110011010001001001110011111110011001101001000100000111010001100110010111011111100100011001000010111100011100111110001100111010110000011100100101111011001010010001000111001110100000111110000110101101001010101010111010100011111111011010111001000011001001111000001011100010011000010100011111 h
b1000 m
b1010 n
b1001 o
b1010 p
b1010 q
b100 s
b11111 w
b1000 x
b1 y
b1 {
1|
b1 ~

#1482000
0!
05!
0_

#1495000
1!
b0 !!
b1001 "!
b110 #!
b1100 $!
b0 %!
b101010111010100011111111011010111001000011001001 &!
b1010 '!
b11111111101111111111111 *
b0 +
b100011111111011010111001000011001001 +!
b1010 ,
b1010 ,!
b1011 -
b111001000011001001 -!
b100011111111011010 .!
1/!
b11111111110000000000001 1!
b11001000011001001 3!
b11111111011010 4!
15!
b11010111001000011001001 6
b1010111010100011111111 7
b1010 8
b1011 9
b11111100100111100111000 >
b11111111010000000100111 ?
b1010 @
b1011 A
b1010 C!
b1011 D!
b1010 E!
b1011 F!
b1010 G!
b1011 H!
b1010 I!
b1011 J!
1_
b10001101100111101001010010110001000001110010011110110100111001000010111101001010110100101010001000101010110111111100101011000101100101101101000010100110101000101110100110111101010101000100111110000110100000111101111010101100011100001000000010011010001010011111111111111001011001111001110110010101101011010111011011011001010111100111011000000101111110000011110001111011100010011111111101100001000011000111110001001000111101000111111010101111111010010101011000111000001101011110001001010101111000010100010101101011000000110100100000001010011110010101101011001100111001100111011101101000100010000010100000111000111000010110011110111101001111010011110111110101110011010001001001110011111110011001101001000100000111010001100110010111011111100100011001000010111100011100111110001100111010110000011100100101111011001010010001000111001110100000111110000110101101001010101010111010100011111111011010111001000011001001 h
b1010 m
b1100 n
b1100 o
b1100 p
b1100 q
b101 s
b11001001 w
b1010 x
b10 y
b110 z
b0 {
0|
b110 ~

#1508000
0!
05!
0_

#1521000
1!
b1 !!
b1010 "!
b10 #!
b1011 $!
b1 %!
b1110100000111110000110101101001010101010111010 &!
b1100 '!
b10 *
b1 +
b111110000110101101001010101010111010 +!
b1100 ,
b1100 ,!
b1101 -
b1010101010111010 -!
b111110000110101101 .!
0/!
b100000000000000000 1!
b1010101010111010 3!
b11110000110101101 4!
15!
b1101001010101010111010 6
b1110100000111110000110 7
b1100 8
b1101 9
b10101010101000110 >
b11111011111111001010100 ?
b1100 @
b1101 A
b1100 C!
b1101 D!
b1100 E!
b1101 F!
b1100 G!
b1101 H!
b1100 I!
b1101 J!
1_
b10001101100111101001010010110001000001110010011110110100111001000010111101001010110100101010001000101010110111111100101011000101100101101101000010100110101000101110100110111101010101000100111110000110100000111101111010101100011100001000000010011010001010011111111111111001011001111001110110010101101011010111011011011001010111100111011000000101111110000011110001111011100010011111111101100001000011000111110001001000111101000111111010101111111010010101011000111000001101011110001001010101111000010100010101101011000000110100100000001010011110010101101011001100111001100111011101101000100010000010100000111000111000010110011110111101001111010011110111110101110011010001001001110011111110011001101001000100000111010001100110010111011111100100011001000010111100011100111110001100111010110000011100100101111011001010010001000111001110100000111110000110101101001010101010111010 h
b1100 m
b1110 n
b1110 o
b1110 p
b1110 q
b110 s
b10111010 w
b1100 x
b10 z
b1 {
b10 ~

#1534000
0!
05!
0_

